###a:86:{s:8:"last_tab";s:1:"4";s:8:"sitelogo";s:0:"";s:7:"favicon";s:0:"";s:12:"title_length";s:1:"0";s:8:"page_404";s:0:"";s:6:"scheme";s:7:"default";s:14:"developer_mode";s:1:"0";s:12:"scheme_color";s:0:"";s:11:"scheme_body";s:0:"";s:13:"scheme_border";s:0:"";s:6:"layout";s:4:"full";s:10:"bg_box_img";s:0:"";s:19:"sidebar_left_expand";s:1:"3";s:20:"sidebar_right_expand";s:1:"3";s:22:"sidebar_left_expand_md";s:1:"4";s:23:"sidebar_right_expand_md";s:1:"4";s:22:"sidebar_left_expand_sm";s:2:"12";s:23:"sidebar_right_expand_sm";s:2:"12";s:11:"mobile_logo";s:0:"";s:19:"mobile_logo_account";s:90:"https://demo.wpthemego.com/themes/sw_autusin/wp-content/uploads/2018/10/icon-myaccount.png";s:14:"mobile_content";s:4:"1948";s:19:"mobile_header_style";s:7:"mstyle1";s:19:"mobile_footer_style";s:7:"mstyle1";s:12:"header_style";s:6:"style1";s:12:"footer_style";s:3:"789";s:15:"copyright_style";s:7:"default";s:16:"footer_copyright";s:0:"";s:9:"menu_type";s:4:"mega";s:13:"menu_location";a:2:{i:0;s:12:"primary_menu";i:1;s:13:"vertical_menu";}s:11:"sticky_menu";s:1:"1";s:10:"menu_event";s:0:"";s:16:"menu_number_item";s:0:"";s:15:"menu_title_text";s:0:"";s:14:"menu_more_text";s:0:"";s:14:"menu_less_text";s:0:"";s:12:"sidebar_blog";s:4:"left";s:11:"blog_layout";s:4:"list";s:11:"blog_column";s:1:"2";s:20:"product_colcat_large";s:1:"4";s:21:"product_colcat_medium";s:1:"3";s:17:"product_colcat_sm";s:1:"2";s:14:"product_banner";s:0:"";s:22:"product_listing_banner";s:90:"https://demo.wpthemego.com/themes/sw_autusin/wp-content/uploads/2018/10/listing-banner.png";s:17:"product_col_large";s:1:"3";s:18:"product_col_medium";s:1:"2";s:14:"product_col_sm";s:1:"2";s:15:"sidebar_product";s:4:"left";s:17:"product_quickview";s:1:"1";s:25:"product_listing_countdown";s:1:"1";s:14:"product_number";s:2:"12";s:15:"newproduct_time";s:3:"100";s:22:"sidebar_product_detail";s:4:"left";s:20:"product_single_style";s:7:"default";s:24:"product_single_thumbnail";s:6:"bottom";s:12:"product_zoom";s:1:"1";s:13:"product_brand";s:1:"1";s:24:"product_single_countdown";s:1:"1";s:19:"product_number_item";s:1:"8";s:17:"product_more_text";s:0:"";s:17:"product_less_text";s:0:"";s:15:"google_webfonts";s:7:"Poppins";s:15:"webfonts_weight";a:5:{i:0;s:3:"300";i:1;s:3:"400";i:2;s:3:"500";i:3;s:3:"600";i:4;s:3:"700";}s:15:"header_tag_font";s:7:"Poppins";s:9:"menu_font";s:7:"Poppins";s:11:"custom_font";s:0:"";s:17:"custom_font_class";s:0:"";s:15:"social-share-fb";s:1:"#";s:15:"social-share-tw";s:1:"#";s:19:"social-share-tumblr";s:0:"";s:15:"social-share-in";s:0:"";s:22:"social-share-instagram";s:1:"#";s:15:"social-share-go";s:1:"#";s:15:"social-share-pi";s:0:"";s:16:"popup_background";s:85:"https://demo.wpthemego.com/themes/sw_autusin/wp-content/uploads/2018/10/newletter.jpg";s:13:"popup_content";s:160:"<h2 class="title">Newsletter</h2>
<p class="description">Subscribe to the Floris mailing list to receive updates on new arrivals, special offers and other.</p>";s:10:"popup_form";s:21:"[mc4wp_form id="838"]";s:11:"show_cpanel";s:1:"0";s:15:"widget-advanced";s:1:"1";s:12:"social_share";s:1:"1";s:11:"back_active";s:1:"1";s:9:"direction";s:3:"ltr";s:21:"maintaince_background";s:0:"";s:18:"maintaince_content";s:312:"<div class="title-header">
<h2>WE WILL LAUNCH
SOMETHING <span class="flag">AWESOME</span></h2>
</div>
<div class="description">Our website is under construction. We`ll be here soon with our new awesome site Subscribe
now to get notified at our Grand Opening. Already 4.986 subscribers are on the list.</div>";s:15:"maintaince_date";s:10:"04/11/2019";s:15:"maintaince_form";s:12:"[mc4wp_form]";s:14:"sw-opts-backup";s:1:"1";}###